{
  "project_info": {
    "project_number": "468445373002",
    "firebase_url": "https://photomap-7ecef.firebaseio.com",
    "project_id": "photomap-7ecef",
    "storage_bucket": "photomap-7ecef.appspot.com"
  },
  "client": [
    {
      "client_info": {
        "mobilesdk_app_id": "1:468445373002:android:8c9c1fce8e5325cf",
        "android_client_info": {
          "package_name": "com.example.mac_228.photomap"
        }
      },
      "oauth_client": [
        {
          "client_id": "468445373002-8ig0h5s5ibn51ouopaa7r5ik1eo539db.apps.googleusercontent.com",
          "client_type": 1,
          "android_info": {
            "package_name": "com.example.mac_228.photomap",
            "certificate_hash": "409b178f09e8a1d4949eeee3a66181d67a84f7a4"
          }
        },
        {
          "client_id": "468445373002-hb13uv4m0aoe95tarvk8sml0887cp8ne.apps.googleusercontent.com",
          "client_type": 3
        }
      ],
      "api_key": [
        {
          "current_key": "AIzaSyDEuzka3IYFnE4ib9yyucDP_PaAumZbSBc"
        }
      ],
      "services": {
        "analytics_service": {
          "status": 1
        },
        "appinvite_service": {
          "status": 2,
          "other_platform_oauth_client": [
            {
              "client_id": "468445373002-hb13uv4m0aoe95tarvk8sml0887cp8ne.apps.googleusercontent.com",
              "client_type": 3
            }
          ]
        },
        "ads_service": {
          "status": 2
        }
      }
    }
  ],
  "configuration_version": "1"
}